1000
962
264
838
382
604
963
920
30
985
127
179
336
136
505
498
176
431
249
44
554
881
709
286
765
702
869
99
919
243
401
873
594
678
414
817
679
273
977
483
998
37
738
722
587
569
872
172
884
529
474
908
141
503
726
385
997
785
631
221
310
712
307
38
694
313
98
145
940
509
784
97
355
70
301
759
833
72
611
813
832
195
485
81
642
948
405
716
204
588
109
117
495
648
958
250
996
585
251
708
937
149
632
520
971
814
137
577
829
84
847
828
811
567
278
976
548
729
440
799
475
69
467
864
13
212
7
882
268
778
668
121
456
275
841
797
675
925
677
856
436
686
640
989
510
527
323
283
424
356
201
748
836
556
491
894
488
124
843
224
29
859
850
51
914
360
190
71
783
425
523
167
756
946
239
929
308
258
25
578
376
987
705
103
682
328
118
165
233
566
170
762
397
335
670
383
535
387
890
618
46
142
22
933
672
430
265
343
47
381
634
287
95
871
954
481
100
419
388
549
614
602
42
824
591
641
957
129
534
476
107
627
780
891
999
563
139
879
975
661
852
349
821
8
288
870
994
396
874
428
674
751
402
185
471
122
338
220
647
161
584
263
608
75
409
816
199
45
657
740
760
496
407
804
78
27
736
546
511
359
215
4
855
79
576
242
261
151
606
50
750
368
974
926
134
837
399
342
453
14
552
801
203
462
721
690
619
643
43
767
320
559
294
362
227
542
219
61
17
2
571
990
928
660
422
525
28
625
992
779
181
156
130
373
446
652
956
543
66
603
457
598
741
438
972
806
406
983
710
1
735
774
441
89
746
363
883
153
20
435
174
327
794
932
86
384
986
337
605
573
822
74
561
984
742
241
583
752
695
649
934
831
531
60
116
490
404
293
16
791
896
776
246
699
463
351
173
105
747
255
211
889
949
707
497
191
486
851
772
413
155
768
189
568
597
777
347
321
600
427
922
238
844
733
782
749
291
131
420
326
64
352
375
727
866
218
434
521
318
669
596
886
626
898
94
298
570
867
499
285
115
58
613
892
41
377
180
354
11
595
433
952
150
392
553
621
519
960
473
240
12
921
77
276
445
289
260
786
698
810
845
825
140
358
3
973
33
969
842
271
763
169
303
125
369
732
297
6
330
592
644
482
624
398
944
269
826
692
101
472
910
132
437
544
5
876
865
547
361
501
689
40
357
202
444
274
818
770
193
787
590
943
616
538
555
680
450
506
539
918
292
470
793
152
979
526
365
345
861
913
513
76
374
108
724
182
812
517
451
537
443
582
849
532
159
560
639
225
158
805
194
589
730
452
528
423
514
754
909
341
953
146
862
685
85
663
628
236
394
676
796
91
562
244
256
809
508
468
565
581
936
623
887
449
299
743
819
442
557
126
229
599
981
455
757
311
253
10
284
183
148
518
545
222
664
104
371
512
739
324
941
731
344
48
230
656
907
9
500
332
540
391
270
160
178
575
206
62
737
304
683
923
697
665
177
205
493
863
228
771
63
448
970
550
840
530
128
329
248
980
314
454
653
878
622
24
734
947
82
200
175
718
681
290
412
259
386
715
460
991
447
930
875
168
961
112
950
135
516
31
418
773
564
346
551
138
965
171
515
666
53
372
93
966
620
579
487
916
745
237
92
302
717
378
792
693
789
465
120
316
691
901
234
761
846
868
295
96
459
1000
207
558
390
701
36
524
945
106
217
319
18
90
630
478
331
967
795
57
790
196
111
315
26
350
49
306
325
942
339
166
700
858
800
410
798
421
133
703
617
788
266
214
380
764
223
615
696
713
629
15
296
162
633
272
144
857
226
80
769
439
714
458
723
900
766
610
123
59
395
52
216
232
893
728
612
353
830
426
917
415
662
753
905
899
895
317
55
834
931
684
758
65
186
469
280
262
502
197
706
113
389
572
815
522
188
720
163
924
935
755
35
646
654
88
32
880
993
658
461
807
911
902
56
479
645
19
102
247
34
504
492
164
119
820
416
366
803
827
281
322
334
110
927
480
601
282
533
978
417
187
333
939
655
906
637
636
651
808
312
593
955
673
370
231
210
432
507
671
143
574
848
541
411
781
688
704
635
300
348
147
494
536
277
184
915
87
67
252
719
897
853
586
580
192
839
403
198
245
340
835
379
744
279
687
711
305
854
802
68
400
823
995
938
667
235
23
254
988
157
367
650
393
912
429
466
73
83
959
638
209
408
309
609
904
725
39
885
903
484
208
464
477
54
257
21
114
364
877
267
982
659
860
489
888
154
964
775
607
968
213
951
10