10000
8855
7134
9120
4271
9073
4325
5938
8371
3293
9454
5110
7997
1666
3415
2957
4183
1994
268
7542
225
1863
5565
5408
6506
8086
1185
8479
9354
6212
456
2386
7790
3520
7793
8201
8586
5840
8904
5454
9227
3652
6659
6704
8773
2003
3257
9176
7128
9881
5601
5315
6897
7320
9097
6836
3187
5553
7140
8962
4610
866
7220
2341
8994
1814
386
2868
230
2196
4614
1889
5872
7935
657
3721
3276
7313
2570
3139
9016
894
8823
5130
1422
5372
1920
4455
3114
3233
5541
6575
5631
3225
7585
6650
5293
8570
2357
6210
9445
3022
6729
1910
3728
7555
8526
7321
7472
8741
2653
2911
7733
9200
9250
4682
4390
6498
9855
9810
2397
5717
6972
8169
340
919
5271
66
6636
3094
5698
4286
1419
772
2873
4735
3661
8089
3019
1783
2181
2706
4363
7380
5934
9342
2644
3503
8228
4965
1013
1945
9341
2101
3979
1408
171
2024
9371
3408
132
5238
3915
5303
8894
1941
2237
1012
7717
4124
5400
2239
3249
2230
7665
890
1481
3951
3997
7620
4848
8329
656
2059
1355
1954
300
1493
4276
7518
4109
2777
2454
9443
6343
3160
7578
6976
6957
8639
8724
280
9975
4235
3706
2906
1230
7135
6937
3608
8352
7652
8633
5409
3452
8191
1063
7467
1656
3967
9182
9117
551
3125
5758
7703
2537
8980
3446
9192
8505
3069
5861
5650
9982
2268
1334
5173
2980
380
1513
6299
7761
8939
199
886
2855
3422
6606
4046
4048
6526
89
7078
2679
2121
1151
69
5264
7404
5877
7188
513
6201
7544
4807
1775
5394
7385
9727
7696
7143
9531
1217
1311
7499
9135
1781
3274
9600
5200
8840
1345
6093
6758
2363
4291
45
8652
2685
5316
2548
8815
3015
5583
6766
5581
8413
6012
6770
4645
6370
4496
3783
283
5139
4964
7180
815
7725
7699
4866
1552
2996
4278
2149
6524
4718
233
5492
4940
2605
73
5624
6786
2711
2941
9720
5524
3331
8134
2974
3171
9866
8901
7174
3107
190
2528
6168
7954
9541
2697
1860
8762
3120
1485
3812
7023
4853
2555
4625
7465
2662
1908
3118
9444
896
5585
8171
7370
9739
2808
2633
6027
9497
286
4132
4422
7956
6478
6716
7338
7762
9521
8805
316
2847
3004
4758
7577
8742
5081
6169
7325
2040
4028
2581
8577
6651
3622
2752
8230
5893
6539
588
6381
9877
9532
1019
4088
5252
5660
8800
9921
3401
9936
9853
1357
8144
6792
4665
8426
2981
7641
8181
5625
735
3362
5560
5981
2745
5094
3388
321
76
9898
2683
8180
4014
6637
3463
4698
1611
2620
505
2956
3234
2754
1294
3250
5013
9146
8501
3469
4856
3207
6
3974
7985
2251
8541
8872
299
3178
9283
8081
6237
2572
8312
9302
4133
5258
10
7957
3929
2554
9438
2071
1371
3928
6894
4392
2172
1917
2767
4693
1324
2118
7798
5433
3066
4905
6908
6676
9914
5209
6089
586
1428
5276
7863
2762
7330
7730
1062
1239
5519
7638
6322
4577
6117
8557
9992
6453
6224
7074
3735
7235
946
2396
3492
785
7088
9828
4460
2424
3354
1900
7938
1183
4089
4561
9487
8268
6119
2596
8461
9168
2538
5077
6898
1897
1379
7437
1687
1913
4736
7903
7693
4560
6585
7649
7067
6661
1543
4719
4433
8278
4694
8350
4376
9378
4450
3786
1454
4470
8292
3990
5799
9145
2898
5883
4576
4116
3437
4875
9330
6731
4667
9813
645
2011
7249
3473
5354
4661
9224
9760
3091
4509
1711
9990
3460
2930
4949
9075
9849
6098
7277
8603
3256
4323
4841
8487
4512
1159
398
5424
406
5708
1572
5317
3270
7118
4305
8258
5679
228
1227
7237
3819
5814
6873
1911
3052
3971
1083
7923
9890
2965
4926
4816
7319
7961
9405
8699
3380
9435
9434
2301
34
8137
9762
2890
8702
3966
5997
4128
7521
7299
4843
8272
2721
5005
5912
8905
5871
9608
5716
847
3730
4737
8147
4199
5586
1192
3871
9719
3923
6945
1280
1256
1245
2962
9970
8528
7747
4504
3944
837
5458
4331
5648
1409
9569
2805
201
2162
8740
7677
7218
9602
3885
4673
2120
9025
6158
5898
1021
8782
4396
9778
441
745
8733
3991
6473
6449
6267
6015
1660
9350
9634
4357
4497
8164
313
9776
9977
5889
5104
1252
2038
9051
5876
1500
1965
5401
7707
7679
3369
5205
8554
6228
9650
4248
5335
2995
3849
7971
6879
9244
5113
6497
544
3235
1203
8351
8299
4008
2168
3678
6017
7886
9396
3586
8094
5106
9981
595
5366
9694
3825
4055
2337
8694
3858
9414
8018
1558
9045
6767
864
9156
9540
5930
8365
3328
7405
503
6424
7496
4891
4520
7255
1141
4752
490
5215
5856
448
808
3447
725
9915
7470
3942
2892
2252
7906
1578
8302
3638
2402
5851
2086
1575
6013
5090
3138
7187
6051
2272
1805
224
6714
5941
4498
7449
5641
5749
2180
6673
9442
8982
2696
2046
3
4539
3714
2186
1456
4969
8523
7838
7069
9850
5116
7603
4361
8548
4941
138
5980
2561
9254
765
8969
2253
75
9575
8495
9237
6675
5198
5999
9291
6176
3659
7445
5361
1154
7768
5468
6925
498
8381
8055
3912
3625
2691
2651
4058
5914
6680
8295
3277
4354
7539
4268
70
1356
5552
1420
9013
4072
6401
7694
1554
3667
8553
4686
2130
5594
8451
9869
6460
599
6783
9170
531
2787
8876
2947
2824
229
8951
7635
5000
2571
3102
1173
6581
5775
5810
661
8527
8887
969
8746
1952
4979
5741
2231
5156
2689
1101
7749
2388
8977
1179
554
5212
5377
6320
5493
7949
7992
2749
1707
2486
641
5515
8354
5346
5029
4824
7346
9037
5884
1403
517
8188
7933
3681
5075
6901
7152
6815
7053
615
6072
3394
2331
6868
1322
6440
5496
1004
6871
3504
4589
5531
1054
7609
1253
9240
5952
3297
5823
4179
581
7274
4825
6456
960
1407
2748
771
1275
2938
5070
4091
928
5530
1571
6483
1869
4939
6536
5079
4040
1071
4823
5753
5859
1289
842
1700
196
7648
589
2497
2075
3197
5730
4174
4594
4529
4051
6933
5627
6689
9482
1854
2494
1819
2799
5233
4902
1453
3789
4567
2304
3954
7661
6422
7606
1367
9311
5936
7947
9374
6361
3952
8546
5022
1886
5917
2734
3412
5166
4595
1776
9160
2612
2886
2477
5249
6831
8896
8450
2283
7411
344
1642
3509
6160
8339
3840
188
7727
1610
8617
1825
9366
3723
4062
7783
7106
6187
8099
4087
8216
8568
1677
8375
6298
5241
3817
8145
2271
6290
7795
6509
5620
6246
4558
170
4593
7510
4292
2803
8429
9488
3149
1140
5817
4597
6663
2174
820
5623
3478
515
7704
6555
3312
911
1222
8575
4538
724
420
2912
6903
5054
8885
8296
5870
6094
4528
5801
6533
3012
7869
821
3945
6447
1809
305
856
9209
9312
1602
2313
7422
8087
8745
4273
3995
1717
6521
9675
7543
9457
2534
5331
9334
3518
8853
6789
2836
995
8898
6859
3727
9698
7522
914
8918
2137
2006
9595
3072
2671
2366
3658
4041
8065
6999
3390
1647
3535
4575
1758
4582
2474
1389
8386
8920
5448
3351
1186
4761
88
527
8436
3056
5499
4773
6038
8552
2037
1354
7837
1
2507
9020
3417
7968
2800
5324
9708
8582
1300
243
1734
9831
2464
2771
692
7513
5903
3486
8336
2000
1545
3432
6811
335
2895
1038
4050
7887
8710
8132
3000
7802
7097
3924
1514
4144
7752
6325
2709
1242
7474
8110
112
5794
1110
7927
722
8455
4868
323
5675
1601
3908
3085
8910
8801
6134
809
4950
189
2897
819
8845
7206
9658
8264
4785
3065
5357
6932
5694
4410
7567
6670
8931
678
4526
7538
4013
3606
2089
5059
9547
9507
6745
1165
3101
5283
1624
5193
6141
5356
2344
3875
5630
3400
4499
2127
762
4081
7750
6958
3968
3843
327
932
7769
7133
9079
7528
4714
3702
7124
4221
9779
5797
9628
2514
8367
8556
4993
1678
957
4759
2292
9256
802
683
936
2409
2952
2854
4920
952
9642
829
1470
9812
7818
9928
3350
1423
343
2111
3874
4153
5626
7599
8073
4570
3506
8865
8418
9528
3528
2297
3044
8635
711
3025
7756
6850
8156
1518
4359
2737
1881
1490
8028
5726
6983
4756
1204
8107
9519
2352
2298
8027
3603
1047
1138
7090
4105
5089
1619
5485
2559
3522
3034
1991
8983
9007
9837
6221
7708
7100
4834
3656
9477
2387
4584
42
3306
9331
9536
5822
5112
9817
372
8294
8297
7531
2916
3537
5042
5260
8943
9249
4777
2102
1828
4452
430
8616
8578
6018
6693
4206
6300
1989
6834
7600
163
7836
3220
9996
8673
3209
8200
7451
6787
8609
1567
5437
5103
4563
4290
4732
1976
2373
1378
2495
6985
6207
3999
3672
2701
7581
2413
3484
8160
2408
5795
6765
7584
8373
3592
3896
2982
2664
9061
3589
7020
1824
1401
851
7575
1405
5406
6278
3859
2440
2261
8544
1980
6128
9310
1804
3692
1307
2614
9323
4260
9362
8976
8574
8138
525
2845
4641
3162
4878
2305
4338
329
4845
4380
4620
6586
8829
621
1474
4514
9561
9952
7972
3283
9679
4548
699
9725
2173
8814
7010
5188
4984
2823
7973
4059
8780
719
8279
1100
6899
4767
6893
1839
3541
8822
2441
477
4968
4961
4897
3346
8671
5879
5518
9870
6890
5174
67
4562
3947
6191
3978
2604
6519
5963
60
3074
8042
1834
7612
732
991
421
5610
7848
2676
4224
7258
2112
1760
3482
5014
591
6966
4873
800
8789
3829
720
3717
6373
8422
3471
6918
9796
9088
9971
7096
1909
6196
5150
825
5153
7441
884
8888
384
2338
9327
5478
9932
4747
2427
5254
7196
1301
4259
6715
2073
7564
3888
2796
4636
8128
5133
9456
1502
6864
9821
6005
2597
4710
7871
8647
2619
8119
6499
2517
4461
8004
2129
8940
435
7356
1320
4096
6605
8908
8634
889
4638
5849
474
2729
9427
2953
6023
3697
9208
9098
7545
68
8681
4619
4203
9665
1668
5036
1916
346
2979
5307
5248
8678
8395
2049
6335
7379
5244
8974
8248
9467
7977
5488
8676
4806
7797
1302
4559
2460
6273
4802
4424
7047
1866
1325
4989
4750
1484
1198
1522
5696
2984
6429
5051
235
7164
5896
9948
8532
9464
8223
3368
1340
5359
696
8462
4391
9895
1974
1200
5389
4043
1190
4726
3720
9361
5221
6174
2288
9479
4724
2611
9832
3696
3551
5262
2384
117
663
8090
7142
8391
2203
8091
6118
2870
4656
6720
2926
2707
3248
2284
1060
5740
54
6589
7061
9039
2971
7200
1116
8282
5161
6813
3029
6029
7331
3616
1786
637
509
8
153
232
6277
2784
6455
950
5419
8748
9568
5825
4301
7953
7141
931
4653
2966
6390
1450
7342
6654
9544
9138
1796
5634
4957
1288
1008
606
355
24
8469
9526
1730
4613
6728
263
82
1724
53
5364
3487
2527
1463
7276
3563
6261
423
2295
1466
7318
8057
1364
1282
4923
7087
893
6479
8769
5669
8781
2715
7184
5421
2226
4908
3088
3567
9887
6582
8682
2768
8245
1178
5947
437
2669
3891
8023
9028
9043
3128
9470
5747
6923
7529
5138
9223
5865
2610
2636
257
4176
4399
9830
3199
9549
5529
8372
7026
6920
4748
8384
7856
387
116
2039
155
4052
5887
4951
9421
9382
4464
4973
5598
4947
6915
1919
4818
7672
2374
2125
2917
8224
2615
7179
6275
8049
338
2135
3809
7608
3268
6699
2725
2465
1861
4815
6592
6902
4266
4663
5971
6830
9286
4687
2786
9095
3032
8752
6372
9807
47
7515
2290
4978
9683
3377
9266
6804
6812
3878
1272
9198
8006
5470
9672
1299
434
9036
689
6077
3830
7005
7190
2291
6662
4241
674
6279
944
968
8791
7662
7626
9251
5866
5962
6408
4513
7881
8286
5699
6303
1163
282
4111
4348
6276
9546
7647
246
6435
7744
2399
7175
1944
3533
9376
2317
1120
9677
336
4149
3632
562
4524
9543
6061
3309
6090
6163
9321
727
2362
5069
5860
782
9053
3854
4838
7028
8689
8396
7412
5465
6638
2299
1963
3709
4605
4533
1115
1905
3498
7593
1269
4523
9015
8843
4141
5435
1117
9018
4691
7690
1082
1472
1102
5362
2918
2987
9554
5714
7998
7796
2894
5959
5572
9290
6194
1164
432
5439
5841
8425
9428
9271
649
6816
4344
3083
4580
6391
8764
8525
5707
2969
9001
8189
783
51
8861
9122
5614
3435
5111
7817
8583
9450
5446
72
1336
3988
684
249
5922
8542
2757
7701
9072
1495
1515
2376
9671
8600
6653
8205
1494
9185
5395
9596
6182
9724
2140
5967
9903
2593
3137
9682
4340
4010
3123
464
6694
702
1292
5497
2117
6905
5230
2968
3903
966
7186
6143
4776
6620
5720
6982
1283
9882
9235
5202
2501
860
5050
8305
5149
7966
5611
2329
1015
4152
1593
6961
5802
9506
1850
6302
8598
5449
2325
7684
4022
4299
9379
6287
8452
8411
9656
107
9737
1599
6175
6126
7034
7229
7811
1895
3263
5348
1802
7632
6114
6727
7681
278
5940
4170
507
8626
9935
7804
1631
7767
5718
3527
1999
4180
9403
1690
6432
2994
8725
5780
7121
6091
5839
9358
4668
5858
3097
146
1604
4976
3805
6844
8880
5259
8152
3808
4311
1035
9612
8355
8114
4076
1607
9805
4749
8227
619
8679
9008
5384
4156
2087
7234
2694
7791
7395
7572
3733
9319
9340
8653
9400
1877
6681
6010
9835
2169
5545
655
3434
211
8387
4077
7374
3261
5584
2072
1605
5245
6107
707
6492
580
2250
9465
4997
8948
3676
1793
1939
2208
3058
8625
3457
8196
2062
1349
5301
1964
4401
4854
7674
1983
8032
5064
803
6108
2330
9918
2444
191
1621
6777
8792
8749
8097
1761
4393
2523
9494
5192
9060
5835
8637
4186
4284
1574
5607
388
7414
6806
981
2876
2048
6573
2993
6578
5771
1658
854
1904
7830
1830
6849
1210
98
7731
5902
4289
9780
4725
9826
3932
881
101
7849
7295
7333
5338
7974
1651
7574
144
4068
3963
9152
8979
2851
458
5092
4037
9674
289
596
3664
3624
2246
5743
4746
1579
2819
7311
834
3355
8020
8911
1675
6741
1027
9678
7001
4839
7965
778
4104
8349
3392
1926
4377
5002
4531
9059
2693
7729
7561
9696
6848
4604
628
4447
1762
4958
5061
6809
3105
9493
3705
2150
9322
3545
65
8677
7659
3467
6055
270
1092
5628
6266
5186
7458
186
9440
4894
5722
3685
3443
5455
949
6080
4185
7700
5756
5830
2519
3784
7112
266
8327
6780
7501
1629
3857
9771
4519
4793
8566
5526
4388
439
3461
6135
2080
2599
6648
30
9128
4612
6534
8434
524
792
5742
31
6074
1683
5390
7309
141
7934
2385
1219
6398
4480
3708
3042
2225
147
9747
4495
8995
221
883
1753
8736
236
2955
5703
6674
2098
264
468
9864
1189
4640
48
2858
484
6024
3930
3745
2574
37
5332
1075
6048
4798
9096
6655
1377
3188
2171
7611
6884
1207
4898
8187
8304
5748
44
3941
3278
6083
2797
1327
3644
9306
7048
9392
6754
5592
2663
5724
6138
7631
6504
7409
2184
8709
9360
3269
8683
764
9054
4107
5739
2830
6991
2463
7816
39
767
9581
642
3327
4083
650
2270
8219
1216
2705
4147
7806
3897
8886
5184
28
2889
3002
5391
4084
736
9847
8825
1649
9706
7516
4929
3689
6291
9257
5855
2142
5285
7446
3763
5044
4231
8875
3598
5495
9790
1309
9804
976
5136
5757
5888
2254
1644
4544
989
6452
3876
4695
1286
8078
4913
1868
8005
1410
2446
4428
4484
4178
7981
9207
1061
4435
3159
9188
5058
8290
671
1645
543
616
2730
6604
2422
4281
3870
3508
6264
8111
471
2273
7116
7155
2582
4578
5661
6354
746
9231
5027
9614
9956
7202
7908
3798
5684
7040
4541
3007
6846
4790
461
5405
9216
1616
3189
8490
204
2716
8589
4734
6281
8473
2829
6649
6307
7964
6050
7221
8232
8456
4675
9801
798
9841
94
3302
9752
5178
863
5891
7758
97
7324
4319
345
3862
3011
1929
2853
4880
6652
1851
1489
2103
6793
681
7563
6934
6936
638
3372
8949
8534
9432
1577
6984
9645
1785
9793
5691
1831
6115
3865
9880
5048
6755
5595
1462
261
2526
8774
1896
3969
2923
6974
9761
1046
9500
8103
4300
1090
3670
9307
239
8034
4491
1807
2929
8965
4537
207
3677
7876
1551
5874
9685
7280
7480
2825
7212
7323
3892
7408
8663
6466
7251
8011
9913
1270
2863
3710
5578
4918
2986
1318
4027
4525
2783
2624
7596
1129
4012
6660
1209
1452
9002
6110
8563
5141
4036
2964
7882
5261
1254
7760
9238
294
1993
6328
2972
5204
7736
4293
7348
2279
4632
7485
4064
9466
2106
4262
7357
4403
284
7185
5540
8868
4372
8849
4664
403
8198
3414
3940
217
2242
3782
9472
3140
115
1386
8831
1603
4394
5045
2160
4032
3165
6707
9175
7764
6337
4852
8496
7826
410
4298
9297
9624
9363
8619
8140
5327
6122
3057
7452
2274
7340
2545
5194
4717
4518
5466
3588
8472
3636
1020
5642
9495
754
723
3718
2759
1614
5040
8178
5587
1653
6639
8925
2307
303
1673
400
1293
3852
7483
510
3741
5217
961
4053
1875
4438
7291
6383
3514
2159
1847
567
1924
9040
8706
9387
1635
5234
872
6206
9293
7362
3406
2638
4743
5972
4697
9137
7732
941
3864
7642
4681
3003
6157
1498
4437
8343
4352
4189
6292
3454
9692
2429
3726
9197
7165
6963
6170
3775
8807
9912
2312
3084
8320
4038
5597
1112
4129
4986
6226
3006
2393
375
2723
7030
6516
4707
625
9229
8596
3405
6794
9094
1705
5164
3712
1977
679
142
8115
2510
565
7031
8806
354
8316
9700
8860
2963
6060
4781
3665
6088
8029
3045
905
9049
5685
6295
6702
1276
4411
7724
4140
2688
4434
5020
8291
4261
6214
2205
6950
1048
6803
377
4243
6737
2005
121
1088
3005
3483
2004
6232
4770
52
9108
9705
506
2378
8691
3164
2859
9027
6369
2535
8992
8415
8008
2632
6259
9346
5608
9425
7296
1068
7316
3131
5227
1530
296
978
6609
7481
4889
4962
2133
9576
8468
823
1338
3082
4985
9894
2058
6944
3110
4485
2846
3182
9447
6025
2199
6988
5829
8802
422
1315
2578
5875
5988
2872
8928
2094
9416
7929
3156
1742
3217
6123
6448
3760
4042
1833
8743
8113
7131
8519
7865
389
6148
1583
8841
22
8968
7748
6011
7565
1820
183
78
2023
5043
6039
7628
1870
1017
945
167
7051
686
7250
5672
7711
7082
495
522
5593
5026
2556
9091
3548
3788
1536
6044
7308
9335
2655
4883
1439
1477
4840
9409
2404
3177
6028
4339
4409
5404
9308
3609
1319
4234
3879
9703
3590
32
6798
9635
4367
3731
3581
5662
194
1780
367
6821
3493
2489
9978
2096
3153
977
5864
2848
4136
5247
9573
7719
9911
8404
8856
6574
9119
2222
3872
4288
6231
660
512
666
7770
2750
8839
5908
8753
1264
9422
5918
4
4553
4402
6672
5422
5096
7536
9539
8629
7199
6079
7371
2158
6364
4381
3810
6656
4994
4364
5073
1373
7678
4404
706
5735
33
2529
8790
6842
7634
8734
2515
9750
7530
9571
2775
8270
208
3423
4069
2054
6378
2227
1257
4699
4244
8732
8225
7794
4162
1580
3144
8981
8859
1172
539
861
7907
5921
536
906
5334
3774
6927
7257
2642
4521
2485
1722
5910
2200
6430
3511
2390
8301
2318
8900
9942
1297
1339
1487
4386
9968
7766
9116
4226
4626
6600
5158
5097
3252
7099
9164
9574
9112
9261
5682
3190
9786
2634
6525
7807
9373
3116
7050
4764
7899
8146
1433
4154
3237
7571
1521
6222
6362
81
3569
5476
3117
2837
7862
2852
8166
459
6591
2598
8503
2674
7456
2193
5191
9056
3584
3466
7284
328
9314
293
352
3956
5157
8642
5176
4850
7081
4002
2221
2765
9433
6388
488
5892
2319
6441
7579
8610
5007
6355
7880
4190
8906
6189
2591
7154
5766
2871
1506
2576
7979
1799
2714
3899
7594
1229
4481
5074
1794
7167
1326
4320
1086
7712
8432
3626
1471
4230
3561
2915
9829
3539
2175
5423
1308
7267
4240
1663
2943
9691
2201
4018
8899
5031
348
4788
1011
9220
6471
9202
7683
7946
1441
3572
958
6641
3206
90
234
8260
2335
4755
2970
7077
568
7657
79
9785
9987
8692
4742
9019
4893
106
937
9511
7157
8155
3021
244
8477
2908
3287
5588
1898
1316
3307
449
9255
2256
2036
5023
8547
475
1328
8366
3744
7525
2657
7592
9818
5236
5836
8914
5100
1671
5278
987
3797
3549
7473
4715
4056
9769
1591
1773
7630
1360
467
2014
3793
1044
8427
3023
540
2438
3931
2394
23
6313
6423
4646
6682
2220
1517
1906
7755
6886
2417
9005
738
3949
472
2275
1638
3145
7478
3428
1784
5787
1106
9222
9499
4490
812
1298
2746
1520
7814
5772
7691
6216
1934
8971
2100
1350
6611
6851
5049
8761
7076
3338
6994
5905
8934
1167
9657
6458
238
137
4948
9437
5784
2945
5949
9034
3732
4501
3505
8430
6732
9236
7109
2324
3853
6202
3948
828
6436
8253
7601
6003
2613
1587
2531
2990
8314
3361
2900
6562
9884
1372
2480
9252
8508
4093
9749
8907
5349
444
473
869
8448
5319
362
7911
7037
1922
3033
173
7697
2459
811
6341
292
5763
7779
1539
4652
2210
5680
6599
2108
8328
4365
5649
7264
8852
3704
4549
613
3895
4092
5704
2717
879
9505
9393
6002
6623
3308
2901
1131
8795
7562
7759
7875
7669
62
9670
3337
5008
9702
4530
5082
1595
4369
3425
3800
1759
9824
7813
1225
1482
5272
8515
3236
3148
9099
3910
2488
1031
407
2774
4071
1376
5604
5711
718
7021
9480
6563
5986
5558
8784
7497
6367
3629
4232
9356
7347
680
8380
3013
7062
185
6827
1235
154
3348
1084
3024
1744
603
7350
4914
4676
1732
972
6375
4988
2167
8670
8003
8779
2368
365
4362
3163
3343
8067
1109
481
877
2145
6928
8922
1749
8996
6239
5385
4557
4924
3596
4425
2074
9857
790
2141
970
3195
501
6885
1927
7003
7327
5854
8793
6601
4196
9406
9976
3920
3357
4333
1664
1212
2303
8254
2085
5121
8729
6026
5897
8438
9385
6657
4946
6022
9917
5793
6779
2042
5837
1598
647
4473
6105
5237
222
4944
8076
5146
7879
3693
578
5520
7397
758
7306
4463
5037
1094
3913
6035
4587
2178
4169
5559
4588
5919
4419
6240
1581
5789
6145
9317
6744
1688
7554
8599
9865
6155
2144
7576
156
4933
2018
9666
487
6329
1962
3041
740
26
6935
5108
9167
2403
6167
5535
8826
760
5444
1479
8016
8539
6309
3147
9623
3291
6420
5211
2720
9788
4583
5115
8474
668
7885
6180
4568
7670
8246
3758
3601
7671
5968
7233
1024
7984
1818
6053
6896
770
4229
9276
9722
7754
3669
8047
7784
9068
4644
2375
6410
5925
2790
1208
8424
7698
2012
8810
5011
9402
8082
8510
3303
5815
8866
5286
1074
7495
6495
7364
5122
9945
4034
6054
2712
874
571
8594
9419
8661
7125
9490
2500
7407
2469
2081
2229
6596
2907
673
7219
1982
3055
5509
5960
8695
1984
3385
8221
1949
8912
3993
9684
5948
9212
4731
2490
2148
2780
1507
1961
7605
9195
3254
6719
6037
623
3839
9920
162
7751
5427
8680
8713
9904
4254
8176
7286
9721
2677
2309
2351
1187
1718
9126
6205
5827
7716
2224
4700
1055
1467
5777
3570
5165
9693
7328
801
3289
7558
8482
1627
8326
9395
8803
9287
4217
2920
8043
6389
8758
1569
8313
5663
7800
2453
3194
2958
2700
1620
3571
9695
7386
6970
108
4992
8620
2410
6835
5127
8946
4621
1023
3983
2815
9733
6579
592
7556
617
1712
502
7902
3566
6837
9707
5322
5806
3643
7273
8148
8249
9620
1161
7138
4277
3982
7108
3507
290
1648
8513
9320
7104
1232
7950
133
2811
1535
438
8105
7035
4829
7310
3757
4102
8776
7227
2131
2001
3985
6241
1958
8986
496
9770
7812
7443
7591
1907
3556
1148
930
5030
7153
7996
2030
9889
1395
2812
7493
1072
6618
8377
50
7305
9296
6805
9900
7095
8323
1268
6021
4990
9272
8954
4689
4063
219
6946
6310
8738
2639
3600
4360
7519
4709
7444
7086
1274
5326
3574
1817
5314
258
7130
7194
5994
5155
999
356
3260
7597
8408
9298
9429
8193
3157
6552
5992
741
6078
5562
5833
2153
9883
9125
2289
9848
6724
9851
2557
5065
8399
9401
2354
528
5128
601
5582
7569
2914
7009
9226
7740
1042
4066
1290
9995
3673
4373
2513
5564
8511
4877
4123
8293
3494
7607
7624
3835
1050
8480
5945
1837
333
5977
8870
1418
6412
7792
6353
2340
2520
6387
2198
3314
3418
7126
7489
3682
9155
2603
3061
8401
8108
8072
3543
4285
1391
212
4351
4181
9710
9979
4608
774
4408
652
4701
3792
3711
8007
5033
2077
2867
6869
5512
8284
5203
6554
1720
806
3850
8118
742
8990
9964
4895
4837
9352
4451
3604
5312
902
7857
6560
9183
1531
3124
6233
8645
5807
3284
6344
3240
9114
672
4213
248
7503
3167
6710
8693
7720
9924
2577
3223
2371
6103
3442
8244
9902
4265
7071
1305
6608
2704
8170
8218
6030
7240
9274
3502
6301
1447
8397
411
1130
7427
5034
5032
6173
7894
9734
2435
7815
5177
9130
755
9245
7705
9211
2524
2936
4592
5790
7262
7743
6522
3183
3927
4936
9652
1842
8168
9446
2215
8655
1196
5425
7191
963
7550
5144
7839
2269
3122
5973
9193
6336
5140
8804
1662
9782
4370
5869
5845
7668
6917
8306
4067
9513
1918
9333
9367
9065
6857
7063
9644
4970
880
5651
2448
9163
9844
1849
8723
1953
8126
3322
4441
8334
3613
7534
2550
1990
5004
3575
3344
2395
7450
8445
8383
259
6179
6443
2831
8728
3464
7014
6151
4075
2922
4493
6736
6254
3765
2756
8492
2724
5068
1534
6085
2285
813
1313
3767
564
2139
955
2512
9476
4573
8580
6987
5878
7568
7160
3837
404
9205
6853
2487
5281
4097
9940
1708
5638
3972
7176
633
2736
3698
2769
6981
1973
8696
998
1043
9064
7442
8269
110
5848
5218
7918
2641
6997
9959
5622
2076
6049
5596
5462
6549
3051
4039
8190
1618
7888
5701
3053
6076
3587
7553
4510
9726
5151
2927
8615
3754
9515
3202
262
1150
8439
6598
3654
1380
4242
4629
5600
5517
5867
3542
9047
6669
3077
36
2010
8449
1314
5229
1947
3244
8420
605
9153
4634
2905
480
4015
2069
4198
1113
87
2088
6461
8112
8595
1589
4827
9811
1797
634
2356
7113
405
4432
3470
6532
8131
8751
1398
1414
9605
1553
2607
4657
6467
6588
3001
4842
9157
6505
908
1444
5171
6807
2747
9410
8592
5134
6801
7297
5351
7746
6165
63
1392
5105
6998
6541
6854
4201
3100
3429
7922
7901
9284
8817
5460
2190
3166
5367
8266
3279
1679
7494
5440
4900
1240
7242
215
8206
8161
2903
1956
3886
7728
5764
6979
5513
9949
223
4596
1267
378
8760
2992
2860
5067
5277
5098
3623
14
6481
4739
1388
8369
6100
4974
8957
3459
3890
611
3747
180
3170
4006
7773
2445
3964
6068
2361
1516
2744
3068
1443
7895
816
8686
6679
793
8649
5347
948
7573
6691
9270
3618
1740
942
5124
2998
453
5256
463
8848
8775
6243
8744
5416
3981
9579
9280
6127
7373
8998
9468
7959
8088
373
2367
1451
8739
3409
3595
4728
3884
4678
6199
9262
5570
943
1765
6941
418
3557
7689
712
8930
8717
7640
8141
3565
9003
6735
7936
9868
6632
2699
7822
4444
2214
7400
392
8433
7387
9339
3605
5304
7765
4101
8947
9562
1473
2988
4414
4607
3151
7643
8558
3641
749
5786
8869
2743
4738
3836
3468
7054
3112
2684
4744
3403
8182
6517
8332
3349
3387
8149
2452
2326
3121
4207
2989
9985
9042
4148
8203
5239
1118
8410
2154
9731
7260
8581
4784
7680
7833
6431
436
7158
2503
9823
3736
7721
7980
4030
5413
768
287
788
6031
260
9839
4783
5087
9594
8394
7645
7272
2874
9951
7969
6124
557
9459
6270
5456
6730
8330
2601
1696
297
4296
1997
5966
9111
4956
1883
4146
8275
3921
5025
1878
6371
8382
6284
547
4445
2843
5659
9607
8921
577
6445
2877
3296
888
5296
7587
3957
5838
13
4252
6593
5984
2813
5411
7517
8636
5224
9872
6947
4751
4110
2483
2579
1096
5616
4910
394
6213
2398
4304
1437
7827
7420
5618
7292
8159
1169
7570
4459
6824
2333
5987
9588
1971
4502
1039
9646
4672
572
6427
9687
1876
5998
853
1146
2533
2456
4486
318
1238
9282
2123
2165
6289
4508
6405
8045
5463
7367
6000
7057
8491
3304
1788
2902
1770
2245
2176
5927
8001
2781
7019
1135
5213
1524
4065
8183
4019
6340
2518
7619
1529
3635
4387
7440
2942
9000
1445
1657
3098
5280
3262
2392
2350
7787
443
129
4506
3146
4753
7860
917
4586
9267
3246
5599
8402
2126
4251
552
5396
600
1565
4474
4483
1306
7639
2692
7433
3062
5664
3768
7861
5683
4543
5341
4448
4328
4227
7514
2544
7172
1175
669
5516
322
2946
9010
9556
2041
7477
8650
8809
4099
2506
2785
8083
9527
8757
9177
4317
206
3863
9243
9867
3421
8036
6034
5831
9190
5071
5957
5461
1646
664
868
5617
9876
4202
4876
8009
9404
118
8731
4655
786
9313
9462
9225
3152
579
4443
3143
7891
6477
8486
6269
8521
2327
1016
700
3316
9564
4440
5609
9303
4218
9663
6133
8471
6701
2300
4623
6571
2052
3655
6726
2084
1609
8390
2516
2910
8052
2751
4722
8624
3481
8889
7447
2055
6523
2887
3039
9062
3856
5644
5574
548
2015
3906
174
4353
317
7243
7247
4630
6776
7958
6537
8376
9431
6566
924
6230
3628
6819
925
533
8988
2134
6215
6939
6102
6413
4439
5274
6630
8022
1832
4247
1547
7676
1475
2834
476
7268
2618
4239
2316
862
8252
227
5436
7336
2666
4935
74
179
646
4478
4267
307
4223
123
5800
5196
5557
1933
3315
6181
9768
5906
4416
7986
913
1359
4131
9069
7492
3449
9228
7622
3799
9343
7425
5523
1689
5508
6557
5862
3746
6272
2649
128
4787
4858
5666
2925
9148
7976
8500
2832
751
1509
7401
3519
9498
5568
1224
5475
5674
255
2433
4805
4326
9264
8207
4846
2093
8991
7533
3324
8660
6297
7845
56
9662
7590
1716
8651
1505
574
5095
4730
250
9728
4551
5759
6909
8593
1122
2365
1001
7993
7070
408
859
4482
6503
1998
3781
827
1915
5733
9567
4195
1166
8794
1542
4862
6045
442
9273
5072
9489
9753
6508
4238
6112
9919
3583
8844
1342
7224
8195
9637
728
7246
175
35
9006
3532
3048
5603
6829
2045
2541
7919
3059
5909
8359
8229
3253
1478
8241
3861
2804
7166
8497
3475
9141
6711
9557
9893
2622
1733
5539
8987
7991
3395
1284
1330
3090
2315
4172
6924
1032
2511
9773
6500
5933
2951
3196
9967
9908
9242
2504
5943
9648
4237
1028
3617
357
2031
1932
3080
8344
5232
4642
4617
5267
8044
4547
8405
7890
7921
3115
9629
8417
7479
4335
8798
5311
1273
2739
9215
2195
7315
4927
5266
1789
537
3666
1951
2035
1568
4469
5677
5457
1892
6393
7252
8324
9943
6248
518
1622
6081
5506
4205
6271
6867
7851
9834
6258
3961
7846
8838
1121
9593
7396
4337
7018
7905
9328
5850
3035
2323
8342
9905
6211
7366
178
3300
6929
1633
5676
7046
5482
6268
6876
1992
8063
4821
2795
3820
8827
4683
6280
7359
8858
971
64
7615
3317
1152
8238
7436
1400
7161
4007
9179
6150
8116
9699
4427
7004
5913
4741
3047
3769
1966
4786
6482
8374
3842
2311
4884
9469
7548
1260
2939
9032
4670
8276
5397
6559
844
3634
3292
4049
1029
6603
5725
3489
1928
4145
3379
6904
7490
8177
9009
1457
2878
2382
3828
1667
9610
1344
4899
426
2713
5076
5329
159
5723
5636
160
3844
4246
6800
8493
4674
822
2051
1979
8564
6312
5268
312
4158
2147
629
675
9253
6840
8309
9260
5818
3106
8716
8777
5547
7059
1003
4571
3515
3135
8423
1566
2255
413
939
6733
4769
3743
2909
451
7007
176
4465
8697
1972
6056
6084
9294
281
5737
7776
9972
951
907
4385
3729
8536
6751
4811
5544
2008
9326
3285
2217
4228
8707
9901
1368
4809
4857
5886
935
4952
1826
9384
6874
2479
4430
1746
4830
5745
8543
6007
8046
8458
7361
1156
2628
566
320
7504
8085
5028
6331
2827
6855
1085
7110
2931
4896
6409
5779
6342
9154
4960
3530
3975
4800
830
4971
4907
5195
701
6265
3175
716
5571
3411
7045
5895
558
2109
8074
5542
1669
4660
2345
8656
4214
9852
4869
8143
2976
6992
2302
6615
1808
1890
9795
5765
7988
5012
9717
1731
83
2067
6791
3078
8444
4727
3996
9451
8618
9947
3834
9886
7476
8481
3715
2257
7583
8231
780
670
8711
8927
5295
690
8605
6686
4938
342
8576
7658
3686
9833
6274
9843
6324
4020
964
8684
5154
2447
4220
2681
6627
5123
4870
3998
6172
6799
7682
2838
1798
8588
9021
2893
8024
608
7983
8186
947
3573
1893
6838
1801
2695
4500
2841
3353
7339
1177
3028
1739
2818
9926
9394
383
9357
3426
1846
3311
9774
5673
9822
9891
203
1056
2502
3591
5046
1383
1754
7963
4164
4983
622
7343
2258
2791
2056
5242
3648
6004
6646
6263
3386
6759
593
8687
921
337
6147
5890
5920
3802
5738
1488
704
8173
6635
630
3272
7788
9408
6296
2066
9289
5734
5709
306
1865
3855
1382
9680
7507
4366
6760
3662
9460
6251
7120
763
1261
3804
665
1822
304
8953
777
1703
1394
6567
4168
5143
6338
5602
4729
3228
5441
2328
5325
1067
9278
5080
5006
7163
1772
5368
2418
1181
3916
58
5847
1144
7924
9673
5452
8727
2348
6772
8967
500
9351
508
1142
1248
6470
1191
2833
8627
2381
2755
3212
7107
1387
3614
7819
6260
5907
7058
885
3637
8053
5431
9618
9998
8197
7244
8199
3347
4826
5589
1022
6244
3497
3699
532
2099
6043
2944
6832
7829
9295
2468
3438
9134
5453
3752
3113
7290
4507
3564
359
867
9181
7462
4383
918
5387
984
6820
9713
240
6922
1133
8892
7209
8478
393
9878
8465
7024
8353
358
975
8621
4955
7789
2788
8816
7298
6197
9397
9993
1692
8226
9759
5498
6687
1243
8958
4774
9986
5976
9757
4879
7883
8021
7781
3474
3191
7488
5337
6152
4302
9676
2296
6164
9391
9071
1532
1563
9535
5386
2753
1199
9159
7017
8414
2549
2434
979
8388
1856
8457
3227
6817
2592
3275
5728
2431
4307
5393
9439
4192
2899
4080
8213
8909
2728
3994
2262
5923
3671
3271
4886
814
9551
9389
8514
5003
2462
9688
9368
5646
9365
8863
791
3640
5152
6889
5782
3740
6014
390
824
6996
4615
2960
6376
8818
1202
6900
5019
6183
901
379
6949
2343
6607
6101
7098
6973
6411
3282
878
6887
614
4079
5983
9420
8963
3231
3577
5946
6647
677
9411
497
5117
1681
923
1147
1606
9716
9765
1630
4906
7809
9925
1628
385
8718
3907
8070
5159
3737
4121
1188
7915
6130
9149
5250
6488
4618
8783
3192
3174
3953
7434
2235
1747
8915
7092
5715
8730
6439
6520
3130
9161
7808
7225
8813
3247
245
1037
1427
3719
9501
876
5816
7013
7353
6587
5690
2861
6959
6833
726
2631
1434
6640
6951
2948
7222
7232
7335
4475
6315
1564
9131
5474
5018
6530
6825
3332
9418
7123
7685
3795
7841
9213
4045
3668
2406
5487
1751
7660
757
713
1864
7287
9566
2277
8192
2856
2359
9735
7799
9586
6008
4295
7173
6671
5062
7803
7403
1215
8256
3245
875
3989
6531
4716
3049
9938
8357
5057
4269
8933
273
1845
5713
6717
9509
4772
8613
2063
5632
8030
667
127
7663
1685
4662
7498
6380
5120
9563
5288
926
3663
2360
7144
9597
2587
5340
1937
3133
164
9659
9151
2119
5310
5147
5647
2451
4112
9580
2881
4025
1528
5543
1706
469
2026
5731
7148
8202
7029
2505
8630
3753
4249
5017
2138
382
3488
7033
6668
4368
3894
1432
2727
2625
5284
3427
5899
4792
6814
19
7877
1266
5291
492
5344
8039
9369
5755
2525
4417
9585
1957
4669
360
3516
10000
8591
7859
3544
7039
1560
4009
6451
2670
1018
3476
787
6684
5670
7870
7205
4814
5633
5751
9448
1871
6502
4757
1058
6321
1226
9129
4117
8821
5554
7714
4602
3611
485
1465
5021
4479
7171
9934
5537
9259
9496
5428
5231
9512
6415
3200
2204
962
5929
7282
1281
5486
4321
2383
5339
4789
1774
5700
4005
4803
5567
3367
265
2798
2070
7666
8262
2650
9081
41
7288
7459
6489
6747
8475
3305
6761
5550
6725
698
57
7637
2280
3054
7080
2575
8674
7932
5228
6434
5135
7738
5736
8071
6106
446
5376
8033
7559
2415
8096
3779
2826
7655
3536
1076
5842
5619
2862
8606
4704
3559
3943
5208
7825
7182
9127
1036
2207
848
4258
938
7423
3826
130
2718
9132
8520
618
6318
2332
4909
8765
9082
4651
1752
6402
2050
9199
465
9712
841
9048
8788
2308
2021
9808
9035
8331
2702
9012
4532
1197
9630
3902
3950
1523
1358
3419
8281
2132
9173
6543
7843
1370
7610
7469
3955
8666
1573
5300
325
6685
1461
1246
6877
9370
416
5820
730
8208
3513
1234
6474
5667
6883
9118
5126
4912
9230
3095
218
781
2458
5323
4679
4565
2320
8646
9560
7146
6943
8066
9524
4436
3208
2802
7627
6177
5621
4472
9746
9204
6059
7376
6514
6136
3134
29
9481
8335
7002
5292
5721
8364
5767
7900
9542
4001
9187
8632
3578
361
103
7189
4355
9504
8993
4047
9577
2888
4658
5527
1335
9375
9729
4775
3838
8567
8150
5953
5302
1007
8165
7382
988
956
8348
9014
7355
3674
5429
9299
2985
9871
3540
7654
2667
1157
3847
1374
40
9055
3873
1867
4346
511
4275
4987
8378
3168
6469
1331
8019
8002
1442
3040
4887
3402
4345
9963
2047
8509
7419
587
6843
237
1510
1233
4847
4782
7192
6683
5844
6073
8407
8924
2206
6696
9931
3480
157
2286
504
2801
4546
9781
1404
302
4151
7435
7847
350
3229
4155
9058
8257
8559
6594
974
1874
4264
8640
8862
759
6697
2044
1080
9210
4054
1674
8247
4820
8440
1476
3684
4256
6347
7832
2267
4216
9123
5163
2553
5990
8507
9017
892
5216
9085
7874
4754
5832
2276
3389
9514
9309
662
3218
9086
9329
1184
6332
3201
2530
6184
5472
6610
7025
5821
697
6911
7278
3555
4921
5681
5752
210
1727
915
5939
6870
1748
8321
8356
1139
5471
3070
209
6209
3075
4574
5551
852
5464
1715
366
1045
253
9316
3680
425
6538
5085
8873
7457
3657
9024
6345
8498
419
3420
2281
7650
2540
3472
2807
4003
8560
9300
927
6666
3984
953
7455
6360
734
5514
5501
3815
4412
6698
7056
1600
5438
2913
3333
4120
1503
3887
1149
2339
371
1385
4996
9944
8454
1468
7667
6374
5494
2116
3222
6768
5561
5243
2009
6075
4106
8060
8850
4476
1912
3103
9349
1426
2661
1218
9740
8737
3009
5762
6658
353
4648
9517
7482
6092
8217
5388
7763
6692
6501
2758
3738
2552
6219
8300
5430
9621
8584
2703
6071
3342
1981
4650
560
6042
7341
139
4462
1538
7621
7617
6395
6293
1546
6417
2013
1559
3109
3323
7248
1612
9503
9103
8174
9136
3914
3776
2163
9372
6548
1676
4398
4903
2228
3898
1617
4029
7302
6368
4421
4536
2793
6104
9263
519
582
9092
9475
3071
3310
7307
1540
8000
3517
8959
4400
6465
5975
187
8721
5510
5132
3777
3538
1709
7266
1295
9681
4980
7151
466
691
6572
2166
5769
4692
1582
9955
4283
4078
8250
996
3433
6888
4108
150
6706
5645
9537
2722
6238
6795
5706
7475
8285
3238
5294
5791
3900
8551
7823
3076
6486
4324
5410
5573
6995
9076
7739
7994
729
2904
3104
3552
8485
4859
1902
8787
2991
8530
7454
2437
7967
4515
9933
9101
5803
7892
2115
5414
2933
5928
7208
2738
916
86
6818
5063
311
1698
4187
1006
3407
2432
2588
835
7317
1728
715
8095
1069
2028
4703
454
3214
7377
9969
5785
1682
4904
6311
3132
2078
2835
1750
2733
276
3318
5041
9827
9558
1686
8437
9858
301
1194
3534
973
2772
5635
6377
5015
640
6860
8665
3759
6476
2128
242
6419
5382
4142
9100
3339
8240
2675
6597
1812
9617
5320
569
9862
4157
8271
3440
1206
2157
3938
433
5055
2959
256
5088
6323
8597
2719
9258
7872
5950
4250
7439
2091
9248
9962
2353
1317
6775
6283
7527
9798
4702
643
4272
2282
3173
610
5207
4431
8929
7393
7939
5403
6930
7942
5001
840
6366
1449
7358
8903
9189
1894
1271
6569
9909
7195
6968
8428
6919
6512
5251
15
1057
6688
3612
6612
4033
7723
8220
3599
3172
9463
6236
2243
6969
462
1694
3126
7613
6304
2626
4085
9803
6847
1721
8041
3877
2652
5182
7710
7094
4378
8154
4534
3230
8194
6403
2875
4963
9838
6993
5469
7644
6235
5964
8243
8211
8923
1412
8658
9816
9879
7557
8058
6385
4060
9523
4349
5956
4890
4423
6595
5350
624
1059
4804
5926
4888
694
6913
1255
6294
9751
399
7775
5172
2450
5522
6475
6121
9142
4406
1925
9337
315
9565
6705
2583
9292
5525
8117
4379
5688
285
6438
3490
3030
1279
1497
8766
275
1258
6544
9957
6200
165
1844
6392
8641
482
6229
9203
5052
3764
8675
6965
9305
4458
9169
3198
9109
2428
8550
4332
8989
1413
120
6723
7432
9582
1745
912
4026
4639
9638
5534
9033
7201
7523
5732
7487
8785
4322
5381
2364
3724
2191
8846
8453
9381
308
2472
5131
6484
5290
5253
4628
3934
9423
369
4611
5269
3280
1639
4397
3866
27
9196
7044
2492
2708
6739
1879
4696
7840
9748
8184
6188
4418
9899
5399
7786
9701
3436
5868
6421
9158
7552
4835
7753
555
3356
7093
2732
1885
168
8172
1079
688
7930
7618
6356
332
6882
8611
7360
6327
8638
8941
7651
607
9613
5363
8837
7369
553
7835
8121
2558
7526
8059
1790
8398
2202
9359
3181
8936
620
5500
2789
5299
7675
4100
9147
7169
9709
9625
4341
9288
5226
1303
8750
2978
8237
7774
1852
2249
7430
8124
3382
8565
8303
7868
5038
4182
7502
3495
739
6192
2294
2187
7363
6346
2937
3017
2416
3700
3079
8628
4982
5298
1446
3935
364
1176
9863
2183
9860
6032
8895
6769
9885
5240
8263
9030
4336
5533
5719
95
5039
4130
8561
6396
2310
6861
2563
4184
7060
6144
682
4564
3965
2882
9044
1362
8842
9353
1729
3785
2857
2110
9939
1570
2654
6262
2420
8013
8602
8393
8158
7022
6921
5270
1637
9110
6001
2449
8569
7289
9430
8704
1841
4768
4245
2482
9989
7230
2475
3992
8385
4016
8120
4771
1585
3739
8265
9802
122
5805
272
4143
8287
1968
986
1168
3216
6358
9633
9639
1988
9775
5894
9484
5639
8215
4342
2565
3594
7241
2594
4215
7139
3141
7831
2391
992
4659
1987
6906
5702
9916
584
5788
3383
2461
6561
1862
747
6590
3273
9966
2377
4991
4624
2095
6628
2568
314
9592
7304
9115
2617
4937
93
6171
4167
4350
4074
817
5197
8289
9763
4468
9590
5521
447
2543
3340
3010
7042
4312
7089
1978
990
9355
4516
7365
6252
9191
6450
9478
1491
4778
4885
202
9907
3526
8389
1541
8897
1170
843
9534
3255
4315
1263
8031
6978
8607
2595
8298
6382
4511
9742
5846
6784
2194
3653
7211
6305
4527
3087
9046
3911
3064
1810
9304
563
5024
4723
9206
8688
4972
5370
6082
9436
6875
2322
8756
1081
8604
5343
125
4720
5484
6518
8932
4253
5
8419
5511
3750
5577
3649
9649
1158
631
2814
4581
2741
858
2551
795
9089
8443
7418
1393
7198
2761
4998
7073
7989
7156
2430
2266
8122
3330
3554
7223
4137
1768
9984
2782
2896
8847
3169
2057
1014
1073
3771
2007
1137
2188
7975
5852
546
8368
3290
1853
4864
3060
1417
529
7692
8084
3576
6218
3725
2248
1967
5333
4932
5843
5783
6839
4294
9604
2002
4954
4654
1213
105
5873
1670
7431
3180
8664
4334
573
7217
831
4115
3868
4197
1643
5656
4171
9825
626
7604
6568
182
9714
870
3491
2776
1537
1782
8535
9764
8026
8319
3550
6397
1891
4844
5951
216
9386
6550
4318
6198
5371
5477
3375
3179
1160
2389
5958
9424
8772
1873
5503
676
6742
9806
6442
8879
597
8308
3883
4343
6722
7566
5974
1323
9139
7322
6086
899
7508
794
6584
9415
8061
9953
9777
2810
7909
6511
8467
7914
4024
7537
7463
231
7038
25
4494
8964
7345
1636
4282
3627
452
1277
6852
7741
5668
7636
2935
3158
7687
721
3851
3716
9104
2682
7334
6399
226
3917
5555
9140
8834
4705
1501
5275
140
7147
1469
3381
9667
4708
8337
7137
516
181
330
4797
8770
7484
2999
5904
9124
8956
5365
6256
8533
804
5223
1312
4119
1193
4429
7673
3345
2924
2820
4471
1397
1930
9937
7695
8416
8255
3325
193
3046
9545
7294
8499
7582
2170
8890
7312
7041
7261
7271
5373
1095
2973
9892
9846
7656
3313
347
370
3501
1136
3378
3742
7183
1287
4177
3500
4721
6363
7853
1244
6404
3099
4552
6040
3364
9730
4822
789
2426
920
8361
1625
6052
7616
6708
6866
7354
570
9772
4892
1155
4073
2278
5824
4017
9906
2136
8820
3880
8540
9483
9452
7598
6629
9792
1504
1995
9011
3086
8654
3562
1247
2629
1946
6190
1105
685
5653
1332
8685
7777
6880
3558
1652
1713
3073
3150
900
7960
3980
424
9234
3213
5935
3925
6613
2342
9723
55
4310
5398
3108
1771
6938
4374
5402
5114
2355
84
7149
4210
1496
8538
2019
3360
2686
3811
1214
9080
1738
2740
636
7718
6109
4867
2983
1145
526
761
4160
1561
6036
4819
5107
7352
3439
5637
6468
6426
1093
4917
6446
994
9888
1548
6250
3512
3701
1033
2481
644
3067
1438
2542
7987
2645
3959
1030
3450
2124
151
3155
5010
4813
8978
8280
102
6131
6634
4453
9578
2259
3901
7589
9070
9324
3020
8179
7500
2817
9233
6186
100
5826
2265
494
6193
9686
4945
1736
3119
9221
4836
897
7326
3193
8643
9744
7941
1251
3295
9784
4591
5760
9783
8893
2760
9896
1884
3845
5615
374
1755
7114
8562
6748
9950
499
4930
2107
7203
8545
429
9473
470
5219
1816
8079
9983
4219
3846
6990
2016
7344
1464
523
8571
5093
6365
5808
8622
2122
9767
6285
6960
8038
4812
7810
3036
8446
2821
4161
2263
648
2869
5369
6823
8754
1285
2232
2155
119
131
8153
3479
1533
368
6774
658
7757
7461
1887
3867
6195
545
9380
1348
9910
8222
5942
5305
530
7383
9861
9246
4550
7588
7709
5954
4799
4467
9591
2919
4633
9661
9265
9106
7505
9875
2816
9023
5273
1104
3477
9660
5491
7801
9031
3939
5099
1526
4191
2436
5183
6125
3869
5142
5655
1369
3922
3639
4122
2616
9449
295
4666
6967
2443
1111
4684
5353
7735
1613
3396
7381
3713
6931
401
2473
639
7524
143
8631
8522
5989
1626
1938
2949
2498
9960
575
7742
1174
3352
9820
5297
2763
2314
5819
805
6841
6797
2521
4931
7586
5125
1343
5729
6185
8938
4150
2590
291
5944
8139
3391
7016
5689
8698
241
6149
6496
3529
3127
8318
1527
5263
1097
6624
2146
2569
4309
5355
7549
8871
6418
2467
5591
3986
550
7940
5415
7535
5697
8524
8101
1823
5336
6545
1787
1241
3370
4579
9491
113
9144
3650
4222
254
1034
4795
5101
6709
2779
3818
8406
489
6306
8891
5148
6006
4855
5282
1697
445
6099
195
8778
6907
2940
2065
18
5145
1128
9093
8882
9589
8659
6529
7228
9655
8715
6400
4287
2097
8506
1701
2623
6808
8106
8573
7625
7
8952
632
6891
659
7925
8796
3404
3946
5532
8608
3161
1440
5773
5181
9217
9281
1710
2164
309
8102
6063
7301
2372
4505
6734
9619
5792
457
9815
1840
4881
5483
2726
391
9178
9636
4522
8092
7068
8950
2083
7771
1460
8412
8867
6565
1584
3660
8719
326
4209
428
838
7000
6916
8549
9754
197
2680
8662
6142
4407
7410
6863
9218
1821
845
6153
200
3568
5279
2412
7055
7178
2358
5857
7303
2223
2609
9738
5811
6154
6952
2806
4779
9522
7867
687
5576
2
2060
3977
1406
136
1296
6556
9800
3326
6472
7722
5915
1650
9407
7049
2017
7314
8601
585
2621
6087
8786
6457
4200
5882
7509
5180
1126
4225
3933
583
6253
8701
7850
3281
9997
2349
6621
7263
8080
9107
6350
2928
710
6986
2053
7207
6746
7117
8441
7170
8040
9502
3585
1634
9336
6528
7413
983
3893
4733
43
6962
6016
3063
3816
7664
2234
752
8421
8572
4622
1329
7471
1010
5374
3499
1519
4118
8239
7378
7688
5754
2233
5265
4861
6384
9664
6317
8937
3384
9474
9518
4863
612
8648
1857
3803
7511
9180
5643
8379
5313
7084
2022
8997
8714
7646
3111
5447
7782
4395
9689
4540
349
9599
2792
3610
4313
9247
538
5187
2185
7913
4255
7083
7855
1880
5426
8447
8797
3521
8864
1511
8970
5445
8832
6062
6583
3791
8712
2197
8878
1430
3761
5109
4446
6892
8431
5066
8163
6462
6619
8129
1077
1597
3691
7145
7686
4488
8392
5083
6414
2547
7623
491
5695
4405
7421
8233
6551
8307
5538
3451
1903
3970
6625
4477
6352
559
9836
381
7417
3299
3445
784
6161
2809
4943
4922
9133
7127
2932
3633
1250
750
7394
4535
5580
3038
3619
440
2764
3441
6225
2476
61
7415
2698
3531
3841
4860
1223
5853
9598
9268
4114
3525
832
20
3822
6485
8672
17
6319
1435
7265
604
1337
6428
756
1091
4545
2216
1341
3651
590
8819
9548
6242
6515
8236
2114
1955
1985
4173
1702
7428
8488
5016
7580
7706
2380
3770
4598
1726
2690
1562
5606
7734
2401
7254
12
2584
252
2455
5170
3824
7842
7150
1384
4127
910
4163
4000
7873
1162
4021
3937
2770
6828
7006
731
6781
9214
9732
7197
1778
3259
3462
7910
3334
836
4600
5220
2828
4967
855
9873
274
7551
993
1201
9641
5345
1743
8799
2850
535
753
5727
4865
279
2567
9794
251
8833
2189
2678
4159
6690
1041
8644
1107
7368
4916
6009
5556
6954
1594
4204
9510
7928
5160
6349
7995
1220
3444
8064
7162
6116
2425
9041
1996
4616
5162
2659
7043
6046
3186
9241
3185
3398
7541
4263
6616
99
5091
909
1838
5778
1923
2419
744
2240
8317
2546
5505
1764
3242
8341
7429
1123
8209
8518
9377
3264
1936
3860
5287
4688
277
9789
2630
4711
1590
627
8623
693
6576
5321
7834
9845
8362
214
7844
2884
1402
2532
9455
5412
9529
6703
6665
6643
5009
7464
4981
3794
3184
2961
1969
7889
8835
7897
6564
6570
1827
5546
6095
6580
5970
4828
7132
169
733
542
1986
8966
6339
9279
3688
7426
5168
9999
4599
3455
1321
4871
4745
4606
748
4175
929
9797
9550
8123
9388
8585
8590
3319
2213
3807
6257
3251
8942
3258
2321
7978
2883
2921
8747
8537
198
8077
1459
2606
7864
8056
7945
9697
6096
9631
5686
5834
9941
5451
3341
9715
2668
5379
1769
7546
9626
49
2082
6379
2369
9654
4808
402
8972
3766
2152
412
8516
8136
3848
6047
561
2104
4011
3043
3832
7715
8015
9486
1680
4635
2710
2020
5169
8100
1436
493
967
7448
9105
3962
3524
2211
8403
6527
1735
5467
9736
4125
7384
850
3675
4389
269
3288
9553
5710
8483
5750
6510
5774
1655
6971
7970
8288
3266
9219
9609
2491
3778
5047
7215
3335
2219
1087
6166
3801
9690
8484
4934
5318
2212
3621
7388
2179
3363
4194
5442
4637
9441
3154
520
9842
1555
3456
9318
5308
4165
152
38
1381
4270
4554
8435
3286
5352
8345
1659
5167
6255
3366
2287
5342
1310
9980
7453
9991
7962
8062
6156
396
6159
6137
7595
7560
4601
9819
6316
7713
3631
2627
5306
4090
5407
1615
7079
7351
4095
5056
6989
7036
8700
9627
2241
2564
1265
9929
6491
2209
71
8614
3889
7931
6162
2061
3703
6865
455
7159
4810
8669
2954
1940
8075
1132
6286
9922
6097
7893
1480
6644
4975
1333
8442
8363
7239
2950
1779
478
7948
9364
3210
5189
114
3646
9538
9840
9814
4347
9587
8985
5863
3031
5175
5549
2499
3547
8267
4585
6357
109
1347
11
6614
8763
3755
7602
8913
7745
4233
4023
9583
111
5129
7858
9102
1975
7820
21
5417
4212
2334
9552
8347
887
5828
846
7181
4572
4740
6740
8502
4977
1512
4556
8175
8261
9166
4874
5693
9718
6878
4849
2346
4609
59
9121
1672
714
3806
933
9525
6540
7136
2182
5605
5590
7064
2589
9766
602
1806
1544
8212
1576
7943
5084
9799
2411
9791
4760
3301
6033
1125
5210
8017
4489
1483
4872
2573
7917
6577
2496
5481
3265
3410
5776
2260
8037
9347
4113
3008
6178
9854
376
1114
5965
6782
2336
158
1888
9026
134
8358
8204
9413
7506
4193
3424
2027
2585
1221
4569
46
4208
3232
8531
7204
4371
4503
609
1950
8579
8162
7300
9269
1829
6245
77
8360
5479
6763
2794
1127
4925
4454
2600
1262
4330
7216
3973
7032
4766
3092
4004
1026
8811
5613
8235
8708
5761
8069
3215
4086
1640
8587
3823
3679
4211
5206
3221
8667
3904
1723
7105
4188
8771
5053
6858
6956
5434
7256
9946
1757
310
7512
5078
3136
1249
3734
7066
6667
3772
2865
6977
3399
5652
460
4791
92
1970
7406
4487
5418
5450
7259
7951
6234
2849
9809
8135
9961
7072
4919
3081
8346
3430
7926
9755
7236
1211
3597
3523
8836
8703
1396
9162
1695
3546
1429
5222
479
483
8127
8133
8668
91
3787
9063
415
1691
849
7011
3960
9022
4139
5502
5118
6713
2238
3756
2866
6631
4762
6773
5916
9758
7824
2778
1205
654
4356
865
3796
891
6249
4643
6217
9668
5658
651
4426
1815
5480
2414
5880
6910
2687
3373
3833
7828
2891
3129
8824
5991
4138
3642
3882
8812
7293
6617
9171
2032
126
2405
5900
2637
5383
2586
9325
8130
1236
4456
3224
6227
1661
7012
7912
1134
1351
9711
1943
6553
7238
7702
1002
635
9756
9057
96
9616
1623
5961
9150
6069
6070
6480
1066
2977
3393
6020
1942
8494
6334
1858
192
8857
5712
4685
1499
3936
9172
6810
8315
2484
576
1065
8409
1070
4384
6208
2033
8098
3602
8142
8466
5640
5985
1237
4680
3397
6129
982
7115
8883
1725
9958
1935
166
9973
8476
2439
839
4449
2997
8311
1632
2885
8051
7614
7402
8489
5911
7532
9275
1592
1704
3751
8555
9050
6433
7982
7390
708
8242
7540
7416
1914
2560
3647
6677
2025
3298
351
3553
4882
4126
1353
1836
5612
5937
9083
5566
9632
833
8944
9651
4257
8333
5978
145
775
737
3453
705
8877
7547
703
1791
7372
8529
2192
9927
2665
6459
3905
8325
9640
3243
9066
4329
1803
3329
9348
773
8470
2580
1228
9412
6314
149
8012
6132
4832
3359
7438
7129
6757
8014
3560
5257
363
9074
3687
9345
1124
3926
4690
1719
1411
8259
4603
9492
431
4953
8902
4413
331
2735
1855
4306
3050
16
6067
8726
6282
9530
6743
9533
1365
9398
3431
8010
6752
6308
9615
4057
9143
6926
7468
9516
267
1171
871
2839
2370
9669
1959
1766
3773
9077
7102
161
4236
5931
1089
3142
810
5657
985
7805
1051
7210
6406
8517
6862
7904
9194
1872
6204
6140
124
5996
6146
4442
9704
3241
7486
1901
922
7778
8919
6802
2658
8884
5812
9520
4274
3413
8830
1009
3267
6721
2864
1737
6845
2731
7772
1741
8370
3881
8185
2218
339
2423
3376
7726
6764
9647
3294
3371
9570
549
2522
5309
7214
717
6749
8926
9874
6494
6064
5201
3239
4763
5687
3582
5086
5235
2640
1103
247
1492
7952
9974
3205
2407
3496
5225
5378
7392
8157
3976
7168
5443
9606
514
1948
6750
1550
8512
5798
6633
6333
9559
2156
3909
3593
7821
9471
534
9584
3630
7337
9458
3580
7737
959
7896
7015
1654
7884
1108
1424
148
8916
1375
5507
5330
4942
3465
2457
9052
5185
6041
5885
4070
5654
4031
4279
395
521
598
6407
4590
1425
4851
7027
779
2773
2034
3089
3321
6912
1859
4627
2113
7122
1180
9741
5199
5489
1099
5881
7226
8310
5432
2673
6942
1556
6700
6778
9332
9930
1182
594
80
6856
2442
3607
4566
8277
6326
2766
9029
6790
2975
8874
4959
8935
695
7275
873
4649
7866
2471
7937
5119
980
7852
1848
6463
7999
5768
4382
1064
1259
1005
1714
5995
9453
7213
4677
4297
1777
271
1882
414
7269
7065
8768
1416
2967
4035
8068
2379
319
3707
541
7281
9572
3027
5179
9417
6678
9897
6953
2647
341
2635
1421
2236
4995
818
9643
2064
2656
1813
934
7052
4901
1231
1025
2177
7629
450
2643
6464
4466
4801
5804
5380
1792
6980
6796
3014
6416
9601
2562
7349
8048
2029
6771
6785
3827
3016
4555
6066
8464
6348
6220
9239
4314
4966
9067
5459
6487
8955
5536
4647
172
7285
135
7075
3821
3615
5563
8251
9965
4061
6493
1049
9232
4517
2539
9603
4796
4280
776
3694
6437
9954
1040
1195
9611
7329
7878
2470
6113
6386
3336
2143
5770
6330
7520
6955
2934
2400
8975
904
5328
184
6542
104
9090
8720
3918
4706
5746
1304
4831
7245
5473
8999
4833
5102
1415
4817
1098
9653
5705
6753
3620
1431
3176
940
769
8917
5671
1921
6872
6948
2742
486
7633
6558
6718
5575
8050
2660
5993
826
427
4134
4542
2068
177
4671
3203
4135
1053
4308
7990
5781
7279
8109
3458
5255
6645
8657
3780
2092
1361
4166
2646
2493
1366
6626
1000
5979
6535
709
4780
4420
1931
4631
6695
2508
3683
8463
5924
213
324
8984
7008
903
5504
4094
8274
1119
3448
9315
6120
3762
807
3416
2264
7653
2079
7101
8759
1800
9856
6964
3219
6058
4492
7460
85
2566
3831
2608
1763
6546
3026
1899
3093
1390
4415
9078
895
1843
8690
1549
5190
9301
8234
8612
3813
6602
898
6826
8283
3485
8945
5528
6203
857
4303
5901
8167
1699
1143
3958
3645
6065
6454
4457
3374
4327
6425
1665
2161
3790
5809
2844
5665
7780
8338
7785
4999
9113
3211
4911
2466
7854
2043
2672
7916
9004
6507
4713
766
8767
5548
9485
3722
8459
9186
9859
5579
9084
397
5796
6940
1588
4358
1684
8881
6359
7398
3358
3919
3748
6822
4375
8705
9184
4316
1278
2421
1352
1641
6513
9344
6288
7375
4794
4082
1693
6223
6762
1960
2247
1486
5420
5137
1608
7119
9338
5982
2306
5246
4044
8214
8340
5744
9622
9743
6057
1508
9426
4098
9461
5490
5214
8054
7283
8400
1052
882
7091
5360
7103
743
7193
1346
3037
4765
6351
1835
9555
7920
2840
2602
1363
1458
8025
7424
8854
954
8035
2244
9087
2536
3204
1525
6642
334
3018
2880
6895
5375
7253
1399
3320
5692
3365
9174
9787
1767
7955
6738
9285
6111
409
799
6712
1557
7270
7389
6139
796
4712
1153
298
7391
9201
3814
6914
6881
3690
8322
7085
8755
9038
6547
9383
7332
205
3695
9988
997
5969
8093
1455
6490
6622
5813
5060
4103
1586
653
5289
8851
8104
1756
3579
6756
2347
8735
5392
8973
6394
5678
7944
4928
5629
5932
1795
9165
9994
965
9390
2842
8808
2293
1448
556
8722
9
6444
1596
6788
2478
9508
9399
7111
6019
8504
2509
288
7466
3226
797
2648
1811
8828
3749
8125
5358
417
5569
8151
1078
7399
6664
220
3510
8961
5035
3096
2879
9745
4915
9277
7491
2105
1291
2090
2151
3987
9923
8210
6975
7177
6247
2822
7231
8960
7898
5955
8460
8273
1